{
  "current_page": 1,
  "data": [
    {
      "id": 419,
      "keyword": "LJ",
      "member_id": null,
      "ip": "114.32.86.90",
      "lang": "ZH",
      "created_at": "2023-02-07 08:58:56",
      "updated_at": "2023-02-07 08:58:56",
      "member_name": "訪客",
      "lang_name": "中文",
      "member": null
    },
    {
      "id": 418,
      "keyword": "LJ",
      "member_id": null,
      "ip": "114.32.86.90",
      "lang": "ZH",
      "created_at": "2023-02-07 08:57:32",
      "updated_at": "2023-02-07 08:57:32",
      "member_name": "訪客",
      "lang_name": "中文",
      "member": null
    },
    {
      "id": 417,
      "keyword": "垃圾桶",
      "member_id": null,
      "ip": "211.21.129.157",
      "lang": "ZH",
      "created_at": "2023-02-06 18:13:19",
      "updated_at": "2023-02-06 18:13:19",
      "member_name": "訪客",
      "lang_name": "中文",
      "member": null
    },
    {
      "id": 416,
      "keyword": "垃圾桶",
      "member_id": null,
      "ip": "211.21.129.157",
      "lang": "ZH",
      "created_at": "2023-02-06 18:12:16",
      "updated_at": "2023-02-06 18:12:16",
      "member_name": "訪客",
      "lang_name": "中文",
      "member": null
    },
    {
      "id": 415,
      "keyword": "垃圾桶",
      "member_id": null,
      "ip": "211.21.129.157",
      "lang": "ZH",
      "created_at": "2023-02-06 18:09:59",
      "updated_at": "2023-02-06 18:09:59",
      "member_name": "訪客",
      "lang_name": "中文",
      "member": null
    },
    {
      "id": 414,
      "keyword": "KIITZU_PRODUCT_TEST",
      "member_id": 1,
      "ip": "1.169.117.1",
      "lang": "ZH",
      "created_at": "2023-02-06 13:58:08",
      "updated_at": "2023-02-06 13:58:08",
      "member_name": "ricky_lin@kiitzu.com",
      "lang_name": "中文",
      "member": {
        "id": 1,
        "register_type": "EMAIL",
        "country_type": "HOME",
        "member_no": "D110Z001",
        "email": "ricky_lin@kiitzu.com",
        "company": "KIITZU",
        "tax_id": "52673029",
        "country": null,
        "dist_id": 14,
        "address": "基隆路一段178號",
        "contact_name": "Ricky",
        "contact_phone": "0978778907",
        "google_id": "102061583012016040320",
        "line_id": null,
        "facebook_id": null,
        "status": "ONLINE",
        "email_verified_at": "2022-10-26 21:24:32",
        "last_login_at": "2023-03-10 12:19:08",
        "created_at": "2022-10-26 21:24:10",
        "updated_at": "2023-03-10 12:19:08",
        "deleted_at": null
      }
    },
    {
      "id": 413,
      "keyword": "垃圾桶",
      "member_id": null,
      "ip": "172.104.86.181",
      "lang": "ZH",
      "created_at": "2023-02-03 17:05:06",
      "updated_at": "2023-02-03 17:05:06",
      "member_name": "訪客",
      "lang_name": "中文",
      "member": null
    },
    {
      "id": 412,
      "keyword": "垃圾桶",
      "member_id": null,
      "ip": "35.203.254.167",
      "lang": "ZH",
      "created_at": "2023-02-03 15:24:26",
      "updated_at": "2023-02-03 15:24:26",
      "member_name": "訪客",
      "lang_name": "中文",
      "member": null
    },
    {
      "id": 411,
      "keyword": "垃圾桶",
      "member_id": null,
      "ip": "35.203.254.166",
      "lang": "ZH",
      "created_at": "2023-02-03 15:02:29",
      "updated_at": "2023-02-03 15:02:29",
      "member_name": "訪客",
      "lang_name": "中文",
      "member": null
    },
    {
      "id": 410,
      "keyword": "TJS-8",
      "member_id": null,
      "ip": "211.21.129.157",
      "lang": "ZH",
      "created_at": "2023-02-01 16:00:15",
      "updated_at": "2023-02-01 16:00:15",
      "member_name": "訪客",
      "lang_name": "中文",
      "member": null
    }
  ],
  "first_page_url": "https://base.jenyen-uat.kiitzu.ninja/api/searchLog?page=1",
  "from": 1,
  "last_page": 42,
  "last_page_url": "https://base.jenyen-uat.kiitzu.ninja/api/searchLog?page=42",
  "next_page_url": "https://base.jenyen-uat.kiitzu.ninja/api/searchLog?page=2",
  "path": "https://base.jenyen-uat.kiitzu.ninja/api/searchLog",
  "per_page": 10,
  "prev_page_url": null,
  "to": 10,
  "total": 419
}
