{
  "status": 200,
  "message": "success",
  "data": {
    "data": [
      {
        "id": 20,
        "pic": "",
        "status": "ONLINE",
        "order": 20,
        "created_at": "2023-06-19 06:49:27",
        "updated_at": "2023-06-19 06:49:27"
      },
      {
        "id": 19,
        "pic": "",
        "status": "ONLINE",
        "order": 30,
        "created_at": "2023-06-19 06:49:27",
        "updated_at": "2023-06-19 06:49:27"
      },
      {
        "id": 18,
        "pic": "",
        "status": "ONLINE",
        "order": 40,
        "created_at": "2023-06-19 06:49:27",
        "updated_at": "2023-06-19 06:49:27"
      },
      {
        "id": 17,
        "pic": "",
        "status": "ONLINE",
        "order": 50,
        "created_at": "2023-06-19 06:49:27",
        "updated_at": "2023-06-19 06:49:27"
      },
      {
        "id": 16,
        "pic": "",
        "status": "ONLINE",
        "order": 10,
        "created_at": "2023-06-19 06:49:27",
        "updated_at": "2023-06-19 06:49:27"
      },
      {
        "id": 15,
        "pic": "",
        "status": "ONLINE",
        "order": 10,
        "created_at": "2023-06-19 06:49:27",
        "updated_at": "2023-06-19 06:49:27"
      },
      {
        "id": 14,
        "pic": "",
        "status": "ONLINE",
        "order": 20,
        "created_at": "2023-06-19 06:49:27",
        "updated_at": "2023-06-19 06:49:27"
      },
      {
        "id": 13,
        "pic": "",
        "status": "ONLINE",
        "order": 30,
        "created_at": "2023-06-19 06:49:27",
        "updated_at": "2023-06-19 06:49:27"
      },
      {
        "id": 12,
        "pic": "",
        "status": "ONLINE",
        "order": 40,
        "created_at": "2023-06-19 06:49:27",
        "updated_at": "2023-06-19 06:49:27"
      },
      {
        "id": 11,
        "pic": "",
        "status": "OFFLINE",
        "order": 50,
        "created_at": "2023-06-19 06:49:27",
        "updated_at": "2023-06-19 06:49:27"
      }
    ],
    "meta": {
      "current_page": 1,
      "last_page": 2,
      "to": 10,
      "from": 1,
      "total": 20,
      "per_page": 10
    }
  }
}
